module gitlab.com/remotejob/k8s_jaeger_trace_log/service1

go 1.19

require (
	github.com/gin-gonic/gin v1.8.1
	github.com/sirupsen/logrus v1.9.0
	go.opentelemetry.io/contrib/instrumentation/github.com/gin-gonic/gin/otelgin v0.37.0
	go.opentelemetry.io/otel v1.11.2
	go.opentelemetry.io/otel/exporters/jaeger v1.11.2
	go.opentelemetry.io/otel/sdk v1.11.2
	go.opentelemetry.io/otel/trace v1.11.2
)

require (
	github.com/gin-contrib/sse v0.1.0 // indirect
	github.com/go-logr/logr v1.2.3 // indirect
	github.com/go-logr/stdr v1.2.2 // indirect
	github.com/go-playground/locales v0.14.0 // indirect
	github.com/go-playground/universal-translator v0.18.0 // indirect
	github.com/go-playground/validator/v10 v10.10.0 // indirect
	github.com/goccy/go-json v0.9.7 // indirect
	github.com/json-iterator/go v1.1.12 // indirect
	github.com/leodido/go-urn v1.2.1 // indirect
	github.com/mattn/go-isatty v0.0.14 // indirect
	github.com/modern-go/concurrent v0.0.0-20180228061459-e0a39a4cb421 // indirect
	github.com/modern-go/reflect2 v1.0.2 // indirect
	github.com/pelletier/go-toml/v2 v2.0.1 // indirect
	github.com/ugorji/go/codec v1.2.7 // indirect
	golang.org/x/crypto v0.0.0-20210711020723-a769d52b0f97 // indirect
	golang.org/x/net v0.0.0-20210226172049-e18ecbb05110 // indirect
	golang.org/x/sys v0.0.0-20220919091848-fb04ddd9f9c8 // indirect
	golang.org/x/text v0.3.6 // indirect
	google.golang.org/protobuf v1.28.0 // indirect
	gopkg.in/yaml.v2 v2.4.0 // indirect
)
